module astroproject

go 1.22.4

require (
	github.com/a-h/templ v0.2.747
	github.com/go-chi/chi/v5 v5.1.0
	github.com/go-chi/httplog/v2 v2.1.1
	github.com/go-faker/faker/v4 v4.4.2
	github.com/mavolin/go-htmx v1.0.0
	github.com/wailsapp/wails/v3 v3.0.0-alpha.0
)

require (
	dario.cat/mergo v1.0.0 // indirect
	github.com/Microsoft/go-winio v0.6.1 // indirect
	github.com/ProtonMail/go-crypto v0.0.0-20230828082145-3c4c8a2d2371 // indirect
	github.com/bep/debounce v1.2.1 // indirect
	github.com/cloudflare/circl v1.3.7 // indirect
	github.com/cyphar/filepath-securejoin v0.2.4 // indirect
	github.com/ebitengine/purego v0.4.0-alpha.4 // indirect
	github.com/emirpasic/gods v1.18.1 // indirect
	github.com/go-git/gcfg v1.5.1-0.20230307220236-3a3c6141e376 // indirect
	github.com/go-git/go-billy/v5 v5.5.0 // indirect
	github.com/go-git/go-git/v5 v5.11.0 // indirect
	github.com/go-ole/go-ole v1.2.6 // indirect
	github.com/godbus/dbus/v5 v5.1.0 // indirect
	github.com/golang/groupcache v0.0.0-20210331224755-41bb18bfe9da // indirect
	github.com/google/uuid v1.3.0 // indirect
	github.com/jbenet/go-context v0.0.0-20150711004518-d14ea06fba99 // indirect
	github.com/jchv/go-winloader v0.0.0-20210711035445-715c2860da7e // indirect
	github.com/kevinburke/ssh_config v1.2.0 // indirect
	github.com/leaanthony/go-ansi-parser v1.6.1 // indirect
	github.com/leaanthony/u v1.1.0 // indirect
	github.com/lmittmann/tint v1.0.4 // indirect
	github.com/mattn/go-colorable v0.1.13 // indirect
	github.com/mattn/go-isatty v0.0.20 // indirect
	github.com/pjbgf/sha1cd v0.3.0 // indirect
	github.com/pkg/browser v0.0.0-20210911075715-681adbf594b8 // indirect
	github.com/pkg/errors v0.9.1 // indirect
	github.com/rivo/uniseg v0.4.7 // indirect
	github.com/samber/lo v1.38.1 // indirect
	github.com/sergi/go-diff v1.2.0 // indirect
	github.com/skeema/knownhosts v1.2.1 // indirect
	github.com/wailsapp/go-webview2 v1.0.9 // indirect
	github.com/wailsapp/mimetype v1.4.1 // indirect
	github.com/xanzy/ssh-agent v0.3.3 // indirect
	golang.org/x/crypto v0.23.0 // indirect
	golang.org/x/exp v0.0.0-20230626212559-97b1e661b5df // indirect
	golang.org/x/mod v0.17.0 // indirect
	golang.org/x/net v0.25.0 // indirect
	golang.org/x/sync v0.7.0 // indirect
	golang.org/x/sys v0.21.0 // indirect
	golang.org/x/text v0.16.0 // indirect
	golang.org/x/tools v0.21.1-0.20240508182429-e35e4ccd0d2d // indirect
	gopkg.in/warnings.v0 v0.1.2 // indirect
)

replace github.com/wailsapp/wails/v3 => ../wails/v3
